0.000000000000000000e+00 0.000000000000000000e+00
2.517288084074031929e-04 1.258247995830876951e-05
1.006661764057781294e-03 5.026975270868805861e-05
2.264038713457705576e-03 1.128815687168830545e-04
4.022593584602329742e-03 2.001183505334362049e-04
6.280555661802800227e-03 3.115624468763272662e-04
9.035651368646646642e-03 4.466798812038493753e-04
1.228510655729647683e-02 6.048225876695657649e-04
1.602564930182182046e-02 7.852311253695293779e-04
2.025351319275126016e-02 9.870378598470035646e-04
2.496444112952733718e-02 1.209270598919514597e-03
3.015368960704578605e-02 1.450856668044910340e-03
3.581603349196366137e-02 1.710627408654591224e-03
4.194577128396520527e-02 1.987323081160339774e-03
4.853673085668941400e-02 2.279598152693551247e-03
5.558227567253826162e-02 2.586026948068285286e-03
6.307531146510747533e-02 2.905109640979103465e-03
7.100829338251141154e-02 3.235278561057019272e-03
7.937323358440939725e-02 3.574904791117643026e-03
8.816170928508360038e-02 3.922305027749954306e-03
9.736487123447062908e-02 4.275748677316965757e-03
1.069734526286063026e-01 4.633465158475022841e-03
1.169777784405109933e-01 4.993651381470718721e-03
1.273677751621226095e-01 5.354479373746816144e-03
1.381329809474648451e-01 5.714104020783698779e-03
1.492625561468393647e-01 6.070670890623942884e-03
1.607452942214339098e-01 6.422324110175734076e-03
1.725696330273573942e-01 6.767214261168067770e-03
1.847236664577387999e-01 7.103506263537567519e-03
1.971951564311666960e-01 7.429387214063814387e-03
2.099715452144008676e-01 7.743074148237343371e-03
2.230399680669447604e-01 8.042821693640752820e-03
2.363872661947486464e-01 8.326929583548246458e-03
2.499999999999997780e-01 8.593749999999995490e-03
2.638644626136583682e-01 8.841694716283248628e-03
2.779666936971130209e-01 9.069242009549107961e-03
2.922924934990568380e-01 9.274943315209329894e-03
3.068274371534356337e-01 9.457429595787688117e-03
3.215568892040640003e-01 9.615417398041030059e-03
3.364660183412890859e-01 9.747714573411911040e-03
3.515398123358624005e-01 9.853225638222284227e-03
3.667630931549822337e-01 9.930956751460972773e-03
3.821205322452865261e-01 9.980020289550509474e-03
3.975966659674047277e-01 9.999638999095485092e-03
4.131759111665348483e-01 9.995177649025875632e-03
4.288425808633573588e-01 9.976891820253908083e-03
4.445809000494944097e-01 9.944792870854915132e-03
4.603750215716055916e-01 9.898746021395229272e-03
4.762090420881286423e-01 9.838671719555831807e-03
4.920670180825961748e-01 9.764546227260525318e-03
5.079329819174041027e-01 9.676401983733816034e-03
5.237909579118711356e-01 9.574327742757260742e-03
5.396249784283941864e-01 9.458468483301956872e-03
5.554190999505054238e-01 9.329025093627077783e-03
5.711574191366424191e-01 9.186253829846771288e-03
5.868240888334650407e-01 9.030465550876262681e-03
6.024033340325950503e-01 8.862024732569161178e-03
6.178794677547136960e-01 8.681348264747850568e-03
6.332369068450175442e-01 8.488904035704684242e-03
6.484601876641370444e-01 8.285209309608382311e-03
6.635339816587108031e-01 8.070828903086286685e-03
6.784431107959358886e-01 7.846373168063393300e-03
6.931725628465641442e-01 7.612495788721594485e-03
7.077075065009430510e-01 7.369891401193666772e-03
7.220333063028867571e-01 7.119293045323086926e-03
7.361355373863414098e-01 6.861469458499873733e-03
7.499999999999996669e-01 6.597222222222227407e-03
7.636127338052511870e-01 6.327382772629765173e-03
7.769600319330550731e-01 6.052809286806392144e-03
7.900284547855989103e-01 5.774383457154391719e-03
8.028048435688331930e-01 5.493007166596884996e-03
8.152763335422610336e-01 5.209599077769355713e-03
8.274303669726426058e-01 4.925091149712000974e-03
8.392547057785657572e-01 4.640425095871823606e-03
8.507374438531606353e-01 4.356548797464413099e-03
8.618670190525350439e-01 4.074412686431257667e-03
8.726322248378772795e-01 3.794966112355506287e-03
8.830222215594889512e-01 3.519153707770444374e-03
8.930265473713936419e-01 3.247911766306748119e-03
9.026351287655294264e-01 2.982164648079432823e-03
9.118382907149161776e-01 2.722821226612027589e-03
9.206267664155906028e-01 2.470771391434614401e-03
9.289917066174885329e-01 2.226882620275468048e-03
9.369246885348925247e-01 1.991996634491905848e-03
9.444177243274616274e-01 1.766926151058553513e-03
9.514632691433104750e-01 1.552451744049243056e-03
9.580542287160349613e-01 1.349318828115314561e-03
9.641839665080361721e-01 1.158234775979421517e-03
9.698463103929542140e-01 9.798661814315818078e-04
9.750355588704725518e-01 8.148362787367568636e-04
9.797464868072487398e-01 6.637225287403471317e-04
9.839743506981781795e-01 5.270543812955898275e-04
9.877148934427034677e-01 4.053112229342151381e-04
9.909643486313534089e-01 2.989205179644510517e-04
9.937194443381971443e-01 2.082561504095112683e-04
9.959774064153976703e-01 1.336369733993289879e-04
9.977359612865421834e-01 7.532557180147917309e-05
9.989933382359421632e-01 3.352724302672762058e-05
9.997482711915925968e-01 8.389200074886293907e-06
1.000000000000000000e+00 0.000000000000000000e+00
